{"storeHouse":[
{"sourceName":"gaotianliuyun仓库","sourceUrl":"https://ghproxy.net/https://raw.githubusercontent.com/hd9211/Tvbox1/main/gaotianliuyun.json"},
{"sourceName":"优质","sourceUrl":"https://ghproxy.net/https://raw.githubusercontent.com/hd9211/Tvbox1/main/优质.json"},
{"sourceName":"CR","sourceUrl":"https://ghproxy.net/https://raw.githubusercontent.com/hd9211/Tvbox1/main/cr.json"},
{"sourceName":"gaotianliuyun仓库1","sourceUrl":"https://gitlab.com/vasrqs/mao/-/raw/master/gaotianliuyun.json"},
{"sourceName":"优质1","sourceUrl":"https://gitlab.com/vasrqs/mao/-/raw/master/优质.json"},
{"sourceName":"CR1","sourceUrl":"https://gitlab.com/vasrqs/mao/-/raw/master/cr.json"}
]}
